{
			"heading1": [
				["abc", "10.000", "20.000", "0.000", "0.000", "0.000", "0.000", "0.000", "0.000", "80.000"],
				["def", "0.000", "20.000", "0.000", "0.000", "0.000", "0.000", "0.000", "0.000", "0.000"],
				["gh1", "0.000", "0.000", "30.000", "0.000", "0.000", "0.000", "0.000", "0.000", "0.000"],
							],
			"heading2": [
				["xyz", "1.000", "2.000", "3.000", "4.000", "5.000", "6.000", "7.000", "8.000", "9.000"],
				["uvw", "10.000", "20.000", "30.000", "40.000", "50.000", "60.000", "70.000", "80.000", "90.000"],
				["rst", "100.000", "0.000", "0.000", "0.000", "0.000", "0.000", "0.000", "0.000", "0.000"],
				["opq", "0.000", "0.000", "0.000", "0.000", "0.000", "0.000", "0.000", "0.000", "800.000"]
			]
	}
